simulation/qsim/ucs1903.msim.vcd
$comment
	File created using the following command:
		vcd file ucs1903.msim.vcd -direction
$end
$date
	Mon Apr 20 15:34:23 2020
$end
$version
	ModelSim Version 10.5b
$end
$timescale
	1ps
$end

$scope module ucs1903_vhd_vec_tst $end
$var wire 1 ! clock $end
$var wire 1 " reset $end
$var wire 1 # sin_ucs1903 $end

$scope module i1 $end
$var wire 1 $ gnd $end
$var wire 1 % vcc $end
$var wire 1 & unknown $end
$var wire 1 ' devoe $end
$var wire 1 ( devclrn $end
$var wire 1 ) devpor $end
$var wire 1 * ww_devoe $end
$var wire 1 + ww_devclrn $end
$var wire 1 , ww_devpor $end
$var wire 1 - ww_sin_ucs1903 $end
$var wire 1 . ww_clock $end
$var wire 1 / ww_reset $end
$var wire 1 0 \inst|dataClock~clkctrl_INCLK_bus\ [3] $end
$var wire 1 1 \inst|dataClock~clkctrl_INCLK_bus\ [2] $end
$var wire 1 2 \inst|dataClock~clkctrl_INCLK_bus\ [1] $end
$var wire 1 3 \inst|dataClock~clkctrl_INCLK_bus\ [0] $end
$var wire 1 4 \clock~inputclkctrl_INCLK_bus\ [3] $end
$var wire 1 5 \clock~inputclkctrl_INCLK_bus\ [2] $end
$var wire 1 6 \clock~inputclkctrl_INCLK_bus\ [1] $end
$var wire 1 7 \clock~inputclkctrl_INCLK_bus\ [0] $end
$var wire 1 8 \sin_ucs1903~output_o\ $end
$var wire 1 9 \clock~input_o\ $end
$var wire 1 : \clock~inputclkctrl_outclk\ $end
$var wire 1 ; \inst|count[0]~18_combout\ $end
$var wire 1 < \reset~input_o\ $end
$var wire 1 = \inst|count[1]~6_combout\ $end
$var wire 1 > \inst|count[1]~7\ $end
$var wire 1 ? \inst|count[2]~8_combout\ $end
$var wire 1 @ \inst|count[2]~9\ $end
$var wire 1 A \inst|count[3]~10_combout\ $end
$var wire 1 B \inst|count[3]~11\ $end
$var wire 1 C \inst|count[4]~12_combout\ $end
$var wire 1 D \inst|count[4]~13\ $end
$var wire 1 E \inst|count[5]~14_combout\ $end
$var wire 1 F \inst|count[5]~15\ $end
$var wire 1 G \inst|count[6]~16_combout\ $end
$var wire 1 H \inst|LessThan2~0_combout\ $end
$var wire 1 I \inst|LessThan2~1_combout\ $end
$var wire 1 J \inst|higthClock~q\ $end
$var wire 1 K \inst|LessThan0~0_combout\ $end
$var wire 1 L \inst|LessThan0~1_combout\ $end
$var wire 1 M \inst|dataClock~q\ $end
$var wire 1 N \inst|dataClock~clkctrl_outclk\ $end
$var wire 1 O \inst1|totalData[0]~12_combout\ $end
$var wire 1 P \inst1|totalData[1]~4_combout\ $end
$var wire 1 Q \inst1|totalData[1]~5\ $end
$var wire 1 R \inst1|totalData[2]~6_combout\ $end
$var wire 1 S \inst1|totalData[2]~7\ $end
$var wire 1 T \inst1|totalData[3]~8_combout\ $end
$var wire 1 U \inst1|totalData[3]~9\ $end
$var wire 1 V \inst1|totalData[4]~10_combout\ $end
$var wire 1 W \inst1|data~0_combout\ $end
$var wire 1 X \inst|LessThan1~0_combout\ $end
$var wire 1 Y \inst|LessThan1~1_combout\ $end
$var wire 1 Z \inst|slowClock~q\ $end
$var wire 1 [ \inst1|LessThan0~0_combout\ $end
$var wire 1 \ \inst8|Mux0~0_combout\ $end
$var wire 1 ] \inst1|totalData\ [4] $end
$var wire 1 ^ \inst1|totalData\ [3] $end
$var wire 1 _ \inst1|totalData\ [2] $end
$var wire 1 ` \inst1|totalData\ [1] $end
$var wire 1 a \inst1|totalData\ [0] $end
$var wire 1 b \inst|count\ [6] $end
$var wire 1 c \inst|count\ [5] $end
$var wire 1 d \inst|count\ [4] $end
$var wire 1 e \inst|count\ [3] $end
$var wire 1 f \inst|count\ [2] $end
$var wire 1 g \inst|count\ [1] $end
$var wire 1 h \inst|count\ [0] $end
$var wire 1 i \inst1|data\ [0] $end
$var wire 1 j \inst1|data\ [1] $end
$upscope $end
$upscope $end
$enddefinitions $end
#0
$dumpvars
0!
1"
0#
0$
1%
x&
1'
1(
1)
1*
1+
1,
0-
0.
1/
08
09
0:
1;
1<
0=
0>
0?
1@
0A
0B
0C
1D
0E
0F
0G
1H
1I
0J
1K
1L
0M
0N
1O
0P
0Q
0R
1S
0T
0U
0V
0W
0X
1Y
0Z
1[
0\
0]
0^
0_
0`
0a
0b
0c
0d
0e
0f
0g
0h
0i
0j
14
15
16
07
10
11
12
03
$end
#56
1!
1.
19
17
1:
1h
1J
1M
1Z
13
0;
1=
1N
1a
1i
1\
0O
1P
18
1-
1#
#111
0!
0.
09
07
0:
#167
1!
1.
19
17
1:
0h
1g
1;
#222
0!
0.
09
07
0:
#278
1!
1.
19
17
1:
1h
0;
0=
1>
1?
#333
0!
0.
09
07
0:
#389
1!
1.
19
17
1:
0h
0g
1f
0?
0@
1;
0>
1?
1@
1A
0A
#444
0!
0.
09
07
0:
#500
1!
1.
19
17
1:
1h
0;
1=
#555
0!
0.
09
07
0:
#611
1!
1.
19
17
1:
0h
1g
1;
#666
0!
0.
09
07
0:
#722
1!
1.
19
17
1:
1h
0;
0=
1>
0?
0@
1A
#777
0!
0.
09
07
0:
#833
1!
1.
19
17
1:
0h
0g
0f
1e
0A
1B
1?
1@
1;
0>
0?
1A
0B
1C
0C
#888
0!
0.
09
07
0:
#944
1!
1.
19
17
1:
1h
0;
1=
#999
0!
0.
09
07
0:
#1055
1!
1.
19
17
1:
0h
1g
1;
#1110
0!
0.
09
07
0:
#1166
1!
1.
19
17
1:
1h
0;
0=
1>
1?
#1221
0!
0.
09
07
0:
#1277
1!
1.
19
17
1:
0h
0g
1f
0?
0@
1;
0>
1?
1@
0A
1B
1C
1A
0B
0C
#1332
0!
0.
09
07
0:
#1388
1!
1.
19
17
1:
1h
0;
1=
#1443
0!
0.
09
07
0:
#1499
1!
1.
19
17
1:
0h
1g
1;
#1554
0!
0.
09
07
0:
#1610
1!
1.
19
17
1:
1h
0;
0=
1>
0?
0@
0A
1B
1C
#1665
0!
0.
09
07
0:
#1721
1!
1.
19
17
1:
0h
0g
0f
0e
1d
0C
0D
1A
0B
1?
1@
1;
0>
0?
0A
1C
1D
1E
0E
#1776
0!
0.
09
07
0:
#1832
1!
1.
19
17
1:
1h
0;
1=
1X
#1887
0!
0.
09
07
0:
#1943
1!
1.
19
17
1:
0h
1g
1;
#1998
0!
0.
09
07
0:
#2054
1!
1.
19
17
1:
1h
0;
0=
1>
1?
#2109
0!
0.
09
07
0:
#2165
1!
1.
19
17
1:
0h
0g
1f
0?
0@
1;
0>
1?
1@
1A
0A
#2220
0!
0.
09
07
0:
#2276
1!
1.
19
17
1:
1h
0;
1=
#2331
0!
0.
09
07
0:
#2387
1!
1.
19
17
1:
0h
1g
1;
#2442
0!
0.
09
07
0:
#2498
1!
1.
19
17
1:
1h
0;
0=
1>
0?
0@
1A
#2553
0!
0.
09
07
0:
#2609
1!
1.
19
17
1:
0h
0g
0f
1e
0A
1B
0Y
1?
1@
1;
0>
0X
1Y
0?
1A
0B
0C
0D
1E
1C
1D
0E
#2664
0!
0.
09
07
0:
#2720
1!
1.
19
17
1:
1h
0;
1=
1X
0Y
#2775
0!
0.
09
07
0:
#2831
1!
1.
19
17
1:
0h
1g
0Z
1;
#2886
0!
0.
09
07
0:
#2942
1!
1.
19
17
1:
1h
0;
0=
1>
1?
#2997
0!
0.
09
07
0:
#3053
1!
1.
19
17
1:
0h
0g
1f
0?
0@
1;
0>
1?
1@
0A
1B
0C
0D
1A
0B
1C
1D
1E
0E
#3108
0!
0.
09
07
0:
#3164
1!
1.
19
17
1:
1h
0;
1=
#3219
0!
0.
09
07
0:
#3275
1!
1.
19
17
1:
0h
1g
0K
1;
#3330
0!
0.
09
07
0:
#3386
1!
1.
19
17
1:
1h
0;
0=
1>
0?
0@
0A
1B
0C
0D
1E
#3441
0!
0.
09
07
0:
#3497
1!
1.
19
17
1:
0h
0g
0f
0e
0d
1c
0E
1F
0L
1C
1D
1A
0B
1?
1@
1K
1;
0>
0X
0?
1L
0A
0C
1E
0F
1G
0G
#3552
0!
0.
09
07
0:
#3608
1!
1.
19
17
1:
1h
0;
1=
#3663
0!
0.
09
07
0:
#3719
1!
1.
19
17
1:
0h
1g
1;
#3774
0!
0.
09
07
0:
#3830
1!
1.
19
17
1:
1h
0;
0=
1>
1?
#3885
0!
0.
09
07
0:
#3941
1!
1.
19
17
1:
0h
0g
1f
0?
0@
0H
1;
0>
1?
1@
1A
0A
#3996
0!
0.
09
07
0:
#4052
1!
1.
19
17
1:
1h
0;
1=
#4107
0!
0.
09
07
0:
#4163
1!
1.
19
17
1:
0h
1g
1;
#4218
0!
0.
09
07
0:
#4274
1!
1.
19
17
1:
1h
0;
0=
1>
0?
0@
1A
#4329
0!
0.
09
07
0:
#4385
1!
1.
19
17
1:
0h
0g
0f
1e
0A
1B
1?
1@
1;
0>
0?
1A
0B
1C
0C
#4440
0!
0.
09
07
0:
#4496
1!
1.
19
17
1:
1h
0;
1=
#4551
0!
0.
09
07
0:
#4607
1!
1.
19
17
1:
0h
1g
1;
#4662
0!
0.
09
07
0:
#4718
1!
1.
19
17
1:
1h
0;
0=
1>
1?
#4773
0!
0.
09
07
0:
#4829
1!
1.
19
17
1:
0h
0g
1f
0?
0@
1;
0>
1?
1@
0A
1B
1C
1A
0B
0C
#4884
0!
0.
09
07
0:
#4940
1!
1.
19
17
1:
1h
0;
1=
#4995
0!
0.
09
07
0:
#5051
1!
1.
19
17
1:
0h
1g
1;
#5106
0!
0.
09
07
0:
#5162
1!
1.
19
17
1:
1h
0;
0=
1>
0?
0@
0A
1B
1C
#5217
0!
0.
09
07
0:
#5273
1!
1.
19
17
1:
0h
0g
0f
0e
1d
0C
0D
1A
0B
1?
1@
1;
0>
0?
0A
1C
1D
0E
1F
1G
1E
0F
0G
#5328
0!
0.
09
07
0:
#5384
1!
1.
19
17
1:
1h
0;
1=
1X
#5439
0!
0.
09
07
0:
#5495
1!
1.
19
17
1:
0h
1g
1;
#5550
0!
0.
09
07
0:
#5606
1!
1.
19
17
1:
1h
0;
0=
1>
1?
#5661
0!
0.
09
07
0:
#5717
1!
1.
19
17
1:
0h
0g
1f
0?
0@
1;
0>
1?
1@
1A
0A
#5772
0!
0.
09
07
0:
#5828
1!
1.
19
17
1:
1h
0;
1=
#5883
0!
0.
09
07
0:
#5939
1!
1.
19
17
1:
0h
1g
1;
#5994
0!
0.
09
07
0:
#6050
1!
1.
19
17
1:
1h
0;
0=
1>
0?
0@
1A
#6105
0!
0.
09
07
0:
#6161
1!
1.
19
17
1:
0h
0g
0f
1e
0A
1B
1?
1@
1;
0>
0X
0?
1A
0B
0C
0D
0E
1F
1C
1D
1E
0F
1G
0G
#6216
0!
0.
09
07
0:
#6272
1!
1.
19
17
1:
1h
0;
1=
1X
#6327
0!
0.
09
07
0:
#6383
1!
1.
19
17
1:
0h
1g
1;
#6438
0!
0.
09
07
0:
#6494
1!
1.
19
17
1:
1h
0;
0=
1>
1?
#6549
0!
0.
09
07
0:
#6605
1!
1.
19
17
1:
0h
0g
1f
0?
0@
1;
0>
1?
1@
0A
1B
0C
0D
1A
0B
1C
1D
0E
1F
1G
1E
0F
0G
#6660
0!
0.
09
07
0:
#6716
1!
1.
19
17
1:
1h
0;
1=
#6771
0!
0.
09
07
0:
#6827
1!
1.
19
17
1:
0h
1g
0K
1;
0L
#6882
0!
0.
09
07
0:
#6938
1!
1.
19
17
1:
1h
0M
03
0;
0=
1>
0?
0@
0N
0A
1B
0C
0D
0E
1F
1G
#6993
0!
0.
09
07
0:
#7049
1!
1.
19
17
1:
0h
0g
0f
0e
0d
0c
1b
0G
0I
1E
0F
1C
1D
1A
0B
1?
1@
1H
1K
1;
0>
0X
0?
1I
0A
0C
0E
1G
#7104
0!
0.
09
07
0:
#7160
1!
1.
19
17
1:
1h
0;
1=
#7215
0!
0.
09
07
0:
#7271
1!
1.
19
17
1:
0h
1g
1;
#7326
0!
0.
09
07
0:
#7382
1!
1.
19
17
1:
1h
0;
0=
1>
1?
#7437
0!
0.
09
07
0:
#7493
1!
1.
19
17
1:
0h
0g
1f
0?
0@
1;
0>
1?
1@
1A
0A
#7548
0!
0.
09
07
0:
#7604
1!
1.
19
17
1:
1h
0;
1=
#7659
0!
0.
09
07
0:
#7715
1!
1.
19
17
1:
0h
1g
1;
#7770
0!
0.
09
07
0:
#7826
1!
1.
19
17
1:
1h
0;
0=
1>
0?
0@
1A
#7881
0!
0.
09
07
0:
#7937
1!
1.
19
17
1:
0h
0g
0f
1e
0A
1B
1?
1@
1;
0>
0?
1A
0B
1C
0C
#7992
0!
0.
09
07
0:
#8048
1!
1.
19
17
1:
1h
0;
1=
#8103
0!
0.
09
07
0:
#8159
1!
1.
19
17
1:
0h
1g
1;
#8214
0!
0.
09
07
0:
#8270
1!
1.
19
17
1:
1h
0;
0=
1>
1?
#8325
0!
0.
09
07
0:
#8381
1!
1.
19
17
1:
0h
0g
1f
0?
0@
1;
0>
1?
1@
0A
1B
1C
1A
0B
0C
#8436
0!
0.
09
07
0:
#8492
1!
1.
19
17
1:
1h
0;
1=
#8547
0!
0.
09
07
0:
#8603
1!
1.
19
17
1:
0h
1g
1;
#8658
0!
0.
09
07
0:
#8714
1!
1.
19
17
1:
1h
0;
0=
1>
0?
0@
0A
1B
1C
#8769
0!
0.
09
07
0:
#8825
1!
1.
19
17
1:
0h
0g
0f
0e
1d
0C
0D
1A
0B
1?
1@
1;
0>
0?
0A
1C
1D
1E
0E
#8880
0!
0.
09
07
0:
#8936
1!
1.
19
17
1:
1h
0;
1=
1X
#8991
0!
0.
09
07
0:
#9047
1!
1.
19
17
1:
0h
1g
1;
#9102
0!
0.
09
07
0:
#9158
1!
1.
19
17
1:
1h
0;
0=
1>
1?
#9213
0!
0.
09
07
0:
#9269
1!
1.
19
17
1:
0h
0g
1f
0?
0@
1;
0>
1?
1@
1A
0A
#9324
0!
0.
09
07
0:
#9380
1!
1.
19
17
1:
1h
0;
1=
#9435
0!
0.
09
07
0:
#9491
1!
1.
19
17
1:
0h
1g
1;
#9546
0!
0.
09
07
0:
#9602
1!
1.
19
17
1:
1h
0;
0=
1>
0?
0@
1A
#9657
0!
0.
09
07
0:
#9713
1!
1.
19
17
1:
0h
0g
0f
1e
0A
1B
1?
1@
1;
0>
0X
0?
1A
0B
0C
0D
1E
1C
1D
0E
#9768
0!
0.
09
07
0:
#9824
1!
1.
19
17
1:
1h
0;
1=
1X
#9879
0!
0.
09
07
0:
#9935
1!
1.
19
17
1:
0h
1g
1;
#9990
0!
0.
09
07
0:
#10046
1!
1.
19
17
1:
1h
0;
0=
1>
1?
#10101
0!
0.
09
07
0:
#10157
1!
1.
19
17
1:
0h
0g
1f
0?
0@
1;
0>
1?
1@
0A
1B
0C
0D
1A
0B
1C
1D
1E
0E
#10212
0!
0.
09
07
0:
#10268
1!
1.
19
17
1:
1h
0;
1=
#10323
0!
0.
09
07
0:
#10379
1!
1.
19
17
1:
0h
1g
0K
1;
#10434
0!
0.
09
07
0:
#10490
1!
1.
19
17
1:
1h
0;
0=
1>
0?
0@
0A
1B
0C
0D
1E
#10545
0!
0.
09
07
0:
#10601
1!
1.
19
17
1:
0h
0g
0f
0e
0d
1c
0E
1F
1C
1D
1A
0B
1?
1@
1K
1;
0>
0X
0?
0A
0C
1E
0F
0G
1G
#10656
0!
0.
09
07
0:
#10712
1!
1.
19
17
1:
1h
0;
1=
#10767
0!
0.
09
07
0:
#10823
1!
1.
19
17
1:
0h
1g
1;
#10878
0!
0.
09
07
0:
#10934
1!
1.
19
17
1:
1h
0;
0=
1>
1?
#10989
0!
0.
09
07
0:
#11045
1!
1.
19
17
1:
0h
0g
1f
0?
0@
0H
1;
0>
1?
1@
0I
1A
0A
#11100
0!
0.
09
07
0:
#11156
1!
1.
19
17
1:
1h
0J
0\
0;
1=
08
0-
0#
#11211
0!
0.
09
07
0:
#11267
1!
1.
19
17
1:
0h
1g
1;
#11322
0!
0.
09
07
0:
#11378
1!
1.
19
17
1:
1h
0;
0=
1>
0?
0@
1A
#11433
0!
0.
09
07
0:
#11489
1!
1.
19
17
1:
0h
0g
0f
1e
0A
1B
1?
1@
1;
0>
0?
1A
0B
1C
0C
#11544
0!
0.
09
07
0:
#11600
1!
1.
19
17
1:
1h
0;
1=
#11655
0!
0.
09
07
0:
#11711
1!
1.
19
17
1:
0h
1g
1;
#11766
0!
0.
09
07
0:
#11822
1!
1.
19
17
1:
1h
0;
0=
1>
1?
#11877
0!
0.
09
07
0:
#11933
1!
1.
19
17
1:
0h
0g
1f
0?
0@
1;
0>
1?
1@
0A
1B
1C
1A
0B
0C
#11988
0!
0.
09
07
0:
#12044
1!
1.
19
17
1:
1h
0;
1=
#12099
0!
0.
09
07
0:
#12155
1!
1.
19
17
1:
0h
1g
1;
#12210
0!
0.
09
07
0:
#12266
1!
1.
19
17
1:
1h
0;
0=
1>
0?
0@
0A
1B
1C
#12321
0!
0.
09
07
0:
#12377
1!
1.
19
17
1:
0h
0g
0f
0e
1d
0C
0D
1A
0B
1?
1@
1;
0>
0?
0A
1C
1D
0E
1F
0G
1E
0F
1G
#12432
0!
0.
09
07
0:
#12488
1!
1.
19
17
1:
1h
0;
1=
1X
#12543
0!
0.
09
07
0:
#12599
1!
1.
19
17
1:
0h
1g
1;
#12654
0!
0.
09
07
0:
#12710
1!
1.
19
17
1:
1h
0;
0=
1>
1?
#12765
0!
0.
09
07
0:
#12821
1!
1.
19
17
1:
0h
0g
1f
0?
0@
1;
0>
1?
1@
1A
0A
#12876
0!
0.
09
07
0:
#12932
1!
1.
19
17
1:
1h
0;
1=
#12987
0!
0.
09
07
0:
#13043
1!
1.
19
17
1:
0h
1g
1;
#13098
0!
0.
09
07
0:
#13154
1!
1.
19
17
1:
1h
0;
0=
1>
0?
0@
1A
#13209
0!
0.
09
07
0:
#13265
1!
1.
19
17
1:
0h
0g
0f
1e
0A
1B
1?
1@
1;
0>
0X
0?
1A
0B
0C
0D
0E
1F
1C
1D
1E
0F
0G
1G
#13320
0!
0.
09
07
0:
#13376
1!
1.
19
17
1:
1h
0;
1=
1X
#13431
0!
0.
09
07
0:
#13487
1!
1.
19
17
1:
0h
1g
1;
#13542
0!
0.
09
07
0:
#13598
1!
1.
19
17
1:
1h
0;
0=
1>
1?
#13653
0!
0.
09
07
0:
#13709
1!
1.
19
17
1:
0h
0g
1f
0?
0@
1;
0>
1?
1@
0A
1B
0C
0D
1A
0B
1C
1D
0E
1F
0G
1E
0F
1G
#13764
0!
0.
09
07
0:
#13820
1!
1.
19
17
1:
1h
0;
1=
#13875
0!
0.
09
07
0:
#13931
1!
1.
19
17
1:
0h
1g
0K
1;
#13986
0!
0.
09
07
0:
#14042
1!
1.
19
17
1:
1h
0;
0=
1>
0?
0@
0A
1B
0C
0D
0E
1F
0G
#14097
0!
0.
09
07
0:
#14153
1!
1.
19
17
1:
0h
0g
0f
0e
0d
0c
0b
1G
1I
1E
0F
1L
1C
1D
1A
0B
1Y
1?
1@
1H
1K
1;
0>
0X
0?
0A
0C
0E
0G
#14208
0!
0.
09
07
0:
#14264
1!
1.
19
17
1:
1h
1J
1M
1Z
13
1\
0;
1=
1N
18
0a
1`
1-
1O
1#
#14319
0!
0.
09
07
0:
#14375
1!
1.
19
17
1:
0h
1g
1;
#14430
0!
0.
09
07
0:
#14486
1!
1.
19
17
1:
1h
0;
0=
1>
1?
#14541
0!
0.
09
07
0:
#14597
1!
1.
19
17
1:
0h
0g
1f
0?
0@
1;
0>
1?
1@
1A
0A
#14652
0!
0.
09
07
0:
#14708
1!
1.
19
17
1:
1h
0;
1=
#14763
0!
0.
09
07
0:
#14819
1!
1.
19
17
1:
0h
1g
1;
#14874
0!
0.
09
07
0:
#14930
1!
1.
19
17
1:
1h
0;
0=
1>
0?
0@
1A
#14985
0!
0.
09
07
0:
#15041
1!
1.
19
17
1:
0h
0g
0f
1e
0A
1B
1?
1@
1;
0>
0?
1A
0B
1C
0C
#15096
0!
0.
09
07
0:
#15152
1!
1.
19
17
1:
1h
0;
1=
#15207
0!
0.
09
07
0:
#15263
1!
1.
19
17
1:
0h
1g
1;
#15318
0!
0.
09
07
0:
#15374
1!
1.
19
17
1:
1h
0;
0=
1>
1?
#15429
0!
0.
09
07
0:
#15485
1!
1.
19
17
1:
0h
0g
1f
0?
0@
1;
0>
1?
1@
0A
1B
1C
1A
0B
0C
#15540
0!
0.
09
07
0:
#15596
1!
1.
19
17
1:
1h
0;
1=
#15651
0!
0.
09
07
0:
#15707
1!
1.
19
17
1:
0h
1g
1;
#15762
0!
0.
09
07
0:
#15818
1!
1.
19
17
1:
1h
0;
0=
1>
0?
0@
0A
1B
1C
#15873
0!
0.
09
07
0:
#15929
1!
1.
19
17
1:
0h
0g
0f
0e
1d
0C
0D
1A
0B
1?
1@
1;
0>
0?
0A
1C
1D
1E
0E
#15984
0!
0.
09
07
0:
#16040
1!
1.
19
17
1:
1h
0;
1=
1X
#16095
0!
0.
09
07
0:
#16151
1!
1.
19
17
1:
0h
1g
1;
#16206
0!
0.
09
07
0:
#16262
1!
1.
19
17
1:
1h
0;
0=
1>
1?
#16317
0!
0.
09
07
0:
#16373
1!
1.
19
17
1:
0h
0g
1f
0?
0@
1;
0>
1?
1@
1A
0A
#16428
0!
0.
09
07
0:
#16484
1!
1.
19
17
1:
1h
0;
1=
#16539
0!
0.
09
07
0:
#16595
1!
1.
19
17
1:
0h
1g
1;
#16650
0!
0.
09
07
0:
#16706
1!
1.
19
17
1:
1h
0;
0=
1>
0?
0@
1A
#16761
0!
0.
09
07
0:
#16817
1!
1.
19
17
1:
0h
0g
0f
1e
0A
1B
0Y
1?
1@
1;
0>
0X
1Y
0?
1A
0B
0C
0D
1E
1C
1D
0E
#16872
0!
0.
09
07
0:
#16928
1!
1.
19
17
1:
1h
0;
1=
1X
0Y
#16983
0!
0.
09
07
0:
#17039
1!
1.
19
17
1:
0h
1g
0Z
1;
#17094
0!
0.
09
07
0:
#17150
1!
1.
19
17
1:
1h
0;
0=
1>
1?
#17205
0!
0.
09
07
0:
#17261
1!
1.
19
17
1:
0h
0g
1f
0?
0@
1;
0>
1?
1@
0A
1B
0C
0D
1A
0B
1C
1D
1E
0E
#17316
0!
0.
09
07
0:
#17372
1!
1.
19
17
1:
1h
0;
1=
#17427
0!
0.
09
07
0:
#17483
1!
1.
19
17
1:
0h
1g
0K
1;
#17538
0!
0.
09
07
0:
#17594
1!
1.
19
17
1:
1h
0;
0=
1>
0?
0@
0A
1B
0C
0D
1E
#17649
0!
0.
09
07
0:
#17705
1!
1.
19
17
1:
0h
0g
0f
0e
0d
1c
0E
1F
0L
1C
1D
1A
0B
1?
1@
1K
1;
0>
0X
0?
1L
0A
0C
1E
0F
1G
0G
#17760
0!
0.
09
07
0:
#17816
1!
1.
19
17
1:
1h
0;
1=
#17871
0!
0.
09
07
0:
#17927
1!
1.
19
17
1:
0h
1g
1;
#17982
0!
0.
09
07
0:
#18038
1!
1.
19
17
1:
1h
0;
0=
1>
1?
#18093
0!
0.
09
07
0:
#18149
1!
1.
19
17
1:
0h
0g
1f
0?
0@
0H
1;
0>
1?
1@
1A
0A
#18204
0!
0.
09
07
0:
#18260
1!
1.
19
17
1:
1h
0;
1=
#18315
0!
0.
09
07
0:
#18371
1!
1.
19
17
1:
0h
1g
1;
#18426
0!
0.
09
07
0:
#18482
1!
1.
19
17
1:
1h
0;
0=
1>
0?
0@
1A
#18537
0!
0.
09
07
0:
#18593
1!
1.
19
17
1:
0h
0g
0f
1e
0A
1B
1?
1@
1;
0>
0?
1A
0B
1C
0C
#18648
0!
0.
09
07
0:
#18704
1!
1.
19
17
1:
1h
0;
1=
#18759
0!
0.
09
07
0:
#18815
1!
1.
19
17
1:
0h
1g
1;
#18870
0!
0.
09
07
0:
#18926
1!
1.
19
17
1:
1h
0;
0=
1>
1?
#18981
0!
0.
09
07
0:
#19037
1!
1.
19
17
1:
0h
0g
1f
0?
0@
1;
0>
1?
1@
0A
1B
1C
1A
0B
0C
#19092
0!
0.
09
07
0:
#19148
1!
1.
19
17
1:
1h
0;
1=
#19203
0!
0.
09
07
0:
#19259
1!
1.
19
17
1:
0h
1g
1;
#19314
0!
0.
09
07
0:
#19370
1!
1.
19
17
1:
1h
0;
0=
1>
0?
0@
0A
1B
1C
#19425
0!
0.
09
07
0:
#19481
1!
1.
19
17
1:
0h
0g
0f
0e
1d
0C
0D
1A
0B
1?
1@
1;
0>
0?
0A
1C
1D
0E
1F
1G
1E
0F
0G
#19536
0!
0.
09
07
0:
#19592
1!
1.
19
17
1:
1h
0;
1=
1X
#19647
0!
0.
09
07
0:
#19703
1!
1.
19
17
1:
0h
1g
1;
#19758
0!
0.
09
07
0:
#19814
1!
1.
19
17
1:
1h
0;
0=
1>
1?
#19869
0!
0.
09
07
0:
#19925
1!
1.
19
17
1:
0h
0g
1f
0?
0@
1;
0>
1?
1@
1A
0A
#19980
0!
0.
09
07
0:
#20036
1!
1.
19
17
1:
1h
0;
1=
#20091
0!
0.
09
07
0:
#20147
1!
1.
19
17
1:
0h
1g
1;
#20202
0!
0.
09
07
0:
#20258
1!
1.
19
17
1:
1h
0;
0=
1>
0?
0@
1A
#20313
0!
0.
09
07
0:
#20369
1!
1.
19
17
1:
0h
0g
0f
1e
0A
1B
1?
1@
1;
0>
0X
0?
1A
0B
0C
0D
0E
1F
1C
1D
1E
0F
1G
0G
#20424
0!
0.
09
07
0:
#20480
1!
1.
19
17
1:
1h
0;
1=
1X
#20535
0!
0.
09
07
0:
#20591
1!
1.
19
17
1:
0h
1g
1;
#20646
0!
0.
09
07
0:
#20702
1!
1.
19
17
1:
1h
0;
0=
1>
1?
#20757
0!
0.
09
07
0:
#20813
1!
1.
19
17
1:
0h
0g
1f
0?
0@
1;
0>
1?
1@
0A
1B
0C
0D
1A
0B
1C
1D
0E
1F
1G
1E
0F
0G
#20868
0!
0.
09
07
0:
#20924
1!
1.
19
17
1:
1h
0;
1=
#20979
0!
0.
09
07
0:
#21035
1!
1.
19
17
1:
0h
1g
0K
1;
0L
#21090
0!
0.
09
07
0:
#21146
1!
1.
19
17
1:
1h
0M
03
0;
0=
1>
0?
0@
0N
0A
1B
0C
0D
0E
1F
1G
#21201
0!
0.
09
07
0:
#21257
1!
1.
19
17
1:
0h
0g
0f
0e
0d
0c
1b
0G
0I
1E
0F
1C
1D
1A
0B
1?
1@
1H
1K
1;
0>
0X
0?
1I
0A
0C
0E
1G
#21312
0!
0.
09
07
0:
#21368
1!
1.
19
17
1:
1h
0;
1=
#21423
0!
0.
09
07
0:
#21479
1!
1.
19
17
1:
0h
1g
1;
#21534
0!
0.
09
07
0:
#21590
1!
1.
19
17
1:
1h
0;
0=
1>
1?
#21645
0!
0.
09
07
0:
#21701
1!
1.
19
17
1:
0h
0g
1f
0?
0@
1;
0>
1?
1@
1A
0A
#21756
0!
0.
09
07
0:
#21812
1!
1.
19
17
1:
1h
0;
1=
#21867
0!
0.
09
07
0:
#21923
1!
1.
19
17
1:
0h
1g
1;
#21978
0!
0.
09
07
0:
#22034
1!
1.
19
17
1:
1h
0;
0=
1>
0?
0@
1A
#22089
0!
0.
09
07
0:
#22145
1!
1.
19
17
1:
0h
0g
0f
1e
0A
1B
1?
1@
1;
0>
0?
1A
0B
1C
0C
#22200
0!
0.
09
07
0:
#22256
1!
1.
19
17
1:
1h
0;
1=
#22311
0!
0.
09
07
0:
#22367
1!
1.
19
17
1:
0h
1g
1;
#22422
0!
0.
09
07
0:
#22478
1!
1.
19
17
1:
1h
0;
0=
1>
1?
#22533
0!
0.
09
07
0:
#22589
1!
1.
19
17
1:
0h
0g
1f
0?
0@
1;
0>
1?
1@
0A
1B
1C
1A
0B
0C
#22644
0!
0.
09
07
0:
#22700
1!
1.
19
17
1:
1h
0;
1=
#22755
0!
0.
09
07
0:
#22811
1!
1.
19
17
1:
0h
1g
1;
#22866
0!
0.
09
07
0:
#22922
1!
1.
19
17
1:
1h
0;
0=
1>
0?
0@
0A
1B
1C
#22977
0!
0.
09
07
0:
#23033
1!
1.
19
17
1:
0h
0g
0f
0e
1d
0C
0D
1A
0B
1?
1@
1;
0>
0?
0A
1C
1D
1E
0E
#23088
0!
0.
09
07
0:
#23144
1!
1.
19
17
1:
1h
0;
1=
1X
#23199
0!
0.
09
07
0:
#23255
1!
1.
19
17
1:
0h
1g
1;
#23310
0!
0.
09
07
0:
#23366
1!
1.
19
17
1:
1h
0;
0=
1>
1?
#23421
0!
0.
09
07
0:
#23477
1!
1.
19
17
1:
0h
0g
1f
0?
0@
1;
0>
1?
1@
1A
0A
#23532
0!
0.
09
07
0:
#23588
1!
1.
19
17
1:
1h
0;
1=
#23643
0!
0.
09
07
0:
#23699
1!
1.
19
17
1:
0h
1g
1;
#23754
0!
0.
09
07
0:
#23810
1!
1.
19
17
1:
1h
0;
0=
1>
0?
0@
1A
#23865
0!
0.
09
07
0:
#23921
1!
1.
19
17
1:
0h
0g
0f
1e
0A
1B
1?
1@
1;
0>
0X
0?
1A
0B
0C
0D
1E
1C
1D
0E
#23976
0!
0.
09
07
0:
#24032
1!
1.
19
17
1:
1h
0;
1=
1X
#24087
0!
0.
09
07
0:
#24143
1!
1.
19
17
1:
0h
1g
1;
#24198
0!
0.
09
07
0:
#24254
1!
1.
19
17
1:
1h
0;
0=
1>
1?
#24309
0!
0.
09
07
0:
#24365
1!
1.
19
17
1:
0h
0g
1f
0?
0@
1;
0>
1?
1@
0A
1B
0C
0D
1A
0B
1C
1D
1E
0E
#24420
0!
0.
09
07
0:
#24476
1!
1.
19
17
1:
1h
0;
1=
#24531
0!
0.
09
07
0:
#24587
1!
1.
19
17
1:
0h
1g
0K
1;
